Portfolio 1
…
library(tidyverse) 
library(tidyr)

library(tidyverse)
library(dplyr)
library(haven)
Mother_and_teen_data <- read_sav("Mother_and_teen_data.sav")
#View(Mother_and_teen_data)
Mother_and_teen_data$Race3 <- as.factor(Mother_and_teen_data$Race3)
select(Mother_and_teen_data, PSE, CD_1, CD_2, CD_3, PAPWARM, PAPmoni, PAPsolic, PAPrule, Race3)

## # A tibble: 184 × 9
##      PSE  CD_1  CD_2  CD_3 PAPWARM PAPmoni PAPsolic PAPrule Race3
##    <dbl> <dbl> <dbl> <dbl>   <dbl>   <dbl>    <dbl>   <dbl> <fct>
##  1  4.31  2     1.29  1       4.17    2.88     3.75    3.5  <NA> 
##  2  5.69  1.33  1.14  1       4.79    3.29     4.58    3.62 1    
##  3  5    NA    NA    NA       4.8     1.71     4.83    4.22 1    
##  4  4.44 NA    NA    NA       4.83    4.33     5       4.33 1    
##  5  6    NA    NA    NA       4.36    3.86     4.33    4.89 1    
##  6  5     1.83  2.14  1       3.79    2.43     2.92    3.78 1    
##  7  4.81 NA    NA    NA       4.33    4.43     4       4.78 1    
##  8  5     1.67  1.29  1       4.14    1.75     3.67    3.02 1    
##  9  4.94  2.17  1.29  1.14    4.17    3.71     4.5     4.39 1    
## 10  3.69  3     1.86  1       3.54    4        3.92    4.78 1    
## # … with 174 more rows
…
