Portfolio 2
…
#failed to figure out how to use geom quantile

#delete the NA from Race3
library(tidyverse)
library(dplyr)
library(haven)
Mother_and_teen_data %>% 
 filter(!is.na(Race3)) %>% 
  mutate(ad_deviance=CD_1 + CD_2 + CD_3)

## # A tibble: 183 × 857
##      `ID#` check Date       Bday       Child…¹ Child…² Child…³ Child1…⁴ Child2…⁵
##      <dbl> <chr> <date>     <date>     <dbl+l>   <dbl>   <dbl> <dbl+lb> <dbl+lb>
##  1  6.17e6 chec… 2011-06-01 NA         1 [gir…      13       7  0 [bio] NA      
##  2  7.28e6 chec… 2011-03-16 1941-07-28 1 [gir…      17      11 NA       NA      
##  3  8.18e6 chec… 2011-04-15 1966-08-18 0 [boy]      13       8  0 [bio] NA      
##  4  1.03e7 chec… 2011-02-23 1966-10-28 0 [boy]      13       8  0 [bio] NA      
##  5  1.11e7 chec… 2011-04-28 1955-11-05 0 [boy]      14       8  0 [bio] NA      
##  6  2.06e6 chec… 2011-03-01 1971-02-06 1 [gir…      13       7  0 [bio]  1 [gir…
##  7  2.19e6 chec… 2011-03-28 1952-02-19 1 [gir…      13       7  2 [ado… NA      
##  8  5.23e6 chec… 2011-02-28 1958-05-23 0 [boy]      14       8  2 [ado… NA      
##  9  8.14e6 chec… 2011-04-14 1959-08-14 1 [gir…      17      11  0 [bio] NA      
## 10  9.25e6 chec… 2011-03-09 1962-09-25 0 [boy]      16      10  0 [bio] NA      
## # … with 173 more rows, 848 more variables: Child2_Age <dbl>,
## #   Child2_Grade <dbl>, Child2_Bio_Step <dbl+lbl>, Child3_Gender <dbl+lbl>,
## #   Child3_Age <dbl>, Child3_Grade <dbl>, Child3_Bio_Step <dbl+lbl>,
## #   Child4_Gender <dbl+lbl>, Child4_Age <dbl>, Child4_Grade <dbl>,
## #   Child4_Bio_Step <dbl+lbl>, Child5_Gender <dbl+lbl>, Child5_Age <dbl>,
## #   Child5_Grade <dbl>, Child5_Bio_Step <dbl+lbl>, Educationlevel <dbl+lbl>,
## #   Husbands_educationlevel <dbl+lbl>, Race_or_Ethnicity <dbl+lbl>, …
…
Mother_and_teen_data %>% 
 mutate(Ethnicity = if_else(Race3 == "1", "2", "3")) %>% mutate(ad_deviance=CD_1 + CD_2 + CD_3)

## # A tibble: 184 × 858
##      `ID#` check Date       Bday       Child…¹ Child…² Child…³ Child1…⁴ Child2…⁵
##      <dbl> <chr> <date>     <date>     <dbl+l>   <dbl>   <dbl> <dbl+lb> <dbl+lb>
##  1  8.09e6 chec… 2011-05-06 1968-08-09 1 [gir…      13       8  0 [bio]  0 [boy]
##  2  6.17e6 chec… 2011-06-01 NA         1 [gir…      13       7  0 [bio] NA      
##  3  7.28e6 chec… 2011-03-16 1941-07-28 1 [gir…      17      11 NA       NA      
##  4  8.18e6 chec… 2011-04-15 1966-08-18 0 [boy]      13       8  0 [bio] NA      
##  5  1.03e7 chec… 2011-02-23 1966-10-28 0 [boy]      13       8  0 [bio] NA      
##  6  1.11e7 chec… 2011-04-28 1955-11-05 0 [boy]      14       8  0 [bio] NA      
##  7  2.06e6 chec… 2011-03-01 1971-02-06 1 [gir…      13       7  0 [bio]  1 [gir…
##  8  2.19e6 chec… 2011-03-28 1952-02-19 1 [gir…      13       7  2 [ado… NA      
##  9  5.23e6 chec… 2011-02-28 1958-05-23 0 [boy]      14       8  2 [ado… NA      
## 10  8.14e6 chec… 2011-04-14 1959-08-14 1 [gir…      17      11  0 [bio] NA      
## # … with 174 more rows, 849 more variables: Child2_Age <dbl>,
## #   Child2_Grade <dbl>, Child2_Bio_Step <dbl+lbl>, Child3_Gender <dbl+lbl>,
## #   Child3_Age <dbl>, Child3_Grade <dbl>, Child3_Bio_Step <dbl+lbl>,
## #   Child4_Gender <dbl+lbl>, Child4_Age <dbl>, Child4_Grade <dbl>,
## #   Child4_Bio_Step <dbl+lbl>, Child5_Gender <dbl+lbl>, Child5_Age <dbl>,
## #   Child5_Grade <dbl>, Child5_Bio_Step <dbl+lbl>, Educationlevel <dbl+lbl>,
## #   Husbands_educationlevel <dbl+lbl>, Race_or_Ethnicity <dbl+lbl>, …
…
